<?xml version="1.0" encoding="utf-8"?>
<!-- Generator: Adobe Illustrator 17.0.0, SVG Export Plug-In . SVG Version: 6.00 Build 0)  -->
<!DOCTYPE svg PUBLIC "-//W3C//DTD SVG 1.1//EN" "http://www.w3.org/Graphics/SVG/1.1/DTD/svg11.dtd">
<svg version="1.1" id="Layer_1" xmlns="http://www.w3.org/2000/svg" xmlns:xlink="http://www.w3.org/1999/xlink" x="0px" y="0px"
	 width="109.877px" height="84.667px" viewBox="0 0 109.877 84.667" enable-background="new 0 0 109.877 84.667"
	 xml:space="preserve">
<rect x="8.693" y="20.878" transform="matrix(0.7071 0.7071 -0.7071 0.7071 22.503 1.0705)" fill="#FDD282" width="2.532" height="13.644"/>
<rect x="93.034" y="26.434" transform="matrix(0.7071 0.7071 -0.7071 0.7071 48.8311 -62.4941)" fill="#FDD282" width="13.644" height="2.532"/>
<path fill="#CFD8DC" d="M59.851,82.589c-2.053,0-3.983-0.8-5.435-2.251L10.57,36.493c-0.236-0.237-0.37-0.559-0.37-0.895
	c0-0.336,0.134-0.658,0.37-0.896L33.27,12.004c0.495-0.495,1.295-0.495,1.79,0l6.345,6.344c1.295-0.929,2.843-1.429,4.467-1.429
	c2.053,0,3.983,0.799,5.435,2.25l4.601,4.602c0.237,0.237,0.371,0.559,0.371,0.895c0,0.337-0.134,0.659-0.371,0.896l-9.081,9.078
	c-2.008,2.01-2.008,5.281,0.001,7.291c0.974,0.973,2.268,1.508,3.646,1.508c1.377,0,2.671-0.535,3.644-1.508l9.062-9.064
	c0.466-0.465,1.21-0.495,1.714-0.071c0.135,0.114,0.266,0.228,0.394,0.355l18.157,18.16c1.453,1.45,2.252,3.381,2.252,5.434
	c0,2.053-0.799,3.984-2.252,5.435c-1.452,1.452-3.382,2.251-5.434,2.251c-0.527,0-1.045-0.053-1.548-0.155
	c0.102,0.504,0.154,1.023,0.154,1.548c0,2.053-0.8,3.983-2.251,5.434c-1.452,1.452-3.383,2.252-5.436,2.252
	c-0.529,0-1.047-0.053-1.553-0.156c0.499,2.446-0.197,5.091-2.09,6.986C63.835,81.789,61.904,82.589,59.851,82.589z M13.256,35.599
	l42.952,42.949c0.973,0.973,2.267,1.509,3.644,1.509c1.377,0,2.671-0.536,3.646-1.51c2.009-2.009,2.009-5.28,0-7.29
	c-0.248-0.247-0.371-0.571-0.371-0.895c0-0.325,0.123-0.649,0.371-0.896c0.495-0.494,1.297-0.494,1.79,0.001
	c0.973,0.973,2.267,1.51,3.643,1.51c1.377,0,2.671-0.537,3.645-1.51c0.974-0.973,1.51-2.267,1.51-3.644
	c0-1.377-0.536-2.671-1.51-3.644c-0.247-0.247-0.371-0.571-0.371-0.895c0-0.325,0.124-0.648,0.371-0.895
	c0.494-0.495,1.296-0.495,1.791,0c0.973,0.973,2.267,1.508,3.644,1.508c1.376,0,2.67-0.536,3.644-1.508
	c0.973-0.975,1.51-2.268,1.51-3.646c0-1.377-0.537-2.67-1.51-3.643L64.092,35.536l-8.184,8.185c-1.452,1.451-3.382,2.25-5.435,2.25
	c-2.053,0-3.984-0.799-5.436-2.25c-2.995-2.998-2.995-7.875-0.001-10.871l8.185-8.184l-3.706-3.706
	c-0.974-0.973-2.268-1.509-3.644-1.509c-1.377,0-2.671,0.536-3.644,1.509c-0.495,0.494-1.296,0.495-1.79,0l-6.273-6.271
	L13.256,35.599z"/>
<g>
	<path fill="#FFFFFF" d="M82.25,53.172L82.25,53.172c-0.336,0-0.658-0.134-0.895-0.371L64.092,35.536l-8.184,8.185
		c-1.452,1.451-3.382,2.25-5.435,2.25c-2.053,0-3.984-0.799-5.436-2.25c-2.995-2.998-2.995-7.875-0.001-10.871l13.38-13.38
		c1.452-1.451,3.383-2.251,5.434-2.251c1.625,0,3.174,0.5,4.469,1.429l6.345-6.345c0.495-0.495,1.297-0.495,1.791,0L99.155,35
		c0.239,0.237,0.372,0.56,0.372,0.896c0,0.336-0.133,0.658-0.372,0.895l-16.009,16.01C82.909,53.037,82.587,53.172,82.25,53.172z
		 M64.076,32.496c0.29,0,0.581,0.098,0.817,0.299c0.134,0.113,0.267,0.227,0.394,0.355L82.25,50.115l14.22-14.22L75.562,14.988
		l-6.273,6.272c-0.495,0.495-1.296,0.495-1.79,0.001c-0.974-0.975-2.269-1.51-3.647-1.51c-1.375,0-2.67,0.535-3.644,1.509
		l-13.38,13.38c-2.008,2.01-2.008,5.281,0.001,7.291c0.974,0.973,2.268,1.508,3.646,1.508c1.377,0,2.671-0.535,3.644-1.508
		l9.062-9.064C63.427,32.62,63.75,32.496,64.076,32.496z"/>
	<path fill="#FFFFFF" d="M49.876,82.887c-2.054,0-3.983-0.799-5.437-2.251c-1.893-1.894-2.59-4.539-2.09-6.985
		c-0.506,0.103-1.026,0.155-1.554,0.155c-2.052,0-3.983-0.799-5.435-2.249c-1.894-1.896-2.59-4.54-2.091-6.985
		c-0.506,0.103-1.026,0.156-1.554,0.156c-2.053,0-3.983-0.799-5.436-2.251c-2.994-2.997-2.995-7.872-0.001-10.871l0.598-0.597
		c0.475-0.475,1.316-0.475,1.79-0.001l27.24,27.24c0.238,0.238,0.372,0.56,0.372,0.896c0,0.336-0.134,0.658-0.372,0.895
		l-0.598,0.597C53.858,82.088,51.928,82.887,49.876,82.887z M45.945,71.866c-1.718,2.023-1.624,5.069,0.286,6.979
		c0.974,0.974,2.268,1.51,3.646,1.51c1.235,0,2.404-0.431,3.334-1.223L45.945,71.866z M36.865,62.787
		c-1.718,2.022-1.622,5.069,0.287,6.98c0.973,0.973,2.268,1.508,3.644,1.508c1.236,0,2.405-0.431,3.335-1.223L36.865,62.787z
		 M27.785,53.707c-1.717,2.024-1.622,5.071,0.286,6.98c0.974,0.973,2.268,1.509,3.645,1.509c1.235,0,2.404-0.431,3.334-1.223
		L27.785,53.707z"/>
</g>
<path fill="#FFFFFF" d="M99.889,38.791c-0.323,0-0.647-0.124-0.895-0.372L73.037,12.464c-0.237-0.237-0.37-0.559-0.37-0.895
	c0-0.336,0.134-0.658,0.37-0.896l8.721-8.721c0.475-0.474,1.316-0.474,1.791,0l25.957,25.957c0.236,0.237,0.37,0.559,0.37,0.895
	c0,0.336-0.134,0.657-0.37,0.895l-8.722,8.719C100.537,38.666,100.214,38.791,99.889,38.791z M75.723,11.568l24.166,24.165
	l6.931-6.929L82.654,4.638L75.723,11.568z"/>
<path fill="#FFFFFF" d="M9.987,38.642c-0.336,0-0.658-0.133-0.895-0.37L0.371,29.55c-0.495-0.495-0.495-1.297,0-1.79L26.326,1.804
	c0.495-0.495,1.297-0.494,1.79-0.001l8.723,8.719c0.237,0.238,0.371,0.56,0.371,0.897c0,0.335-0.133,0.657-0.371,0.895
	L10.882,38.271C10.645,38.508,10.323,38.642,9.987,38.642z M3.056,28.654l6.931,6.931l24.167-24.166l-6.933-6.93L3.056,28.654z"/>
<path fill="#FFFFFF" d="M59.851,82.589c-2.053,0-3.983-0.8-5.435-2.251L10.57,36.493c-0.236-0.237-0.37-0.559-0.37-0.895
	c0-0.336,0.134-0.658,0.37-0.896L33.27,12.004c0.495-0.495,1.295-0.495,1.79,0l6.345,6.344c1.295-0.929,2.843-1.429,4.467-1.429
	c2.053,0,3.983,0.799,5.435,2.25l4.601,4.602c0.237,0.237,0.371,0.559,0.371,0.895c0,0.337-0.134,0.659-0.371,0.896l-9.081,9.078
	c-2.008,2.01-2.008,5.281,0.001,7.291c0.974,0.973,2.268,1.508,3.646,1.508c1.377,0,2.671-0.535,3.644-1.508l9.062-9.064
	c0.466-0.465,1.21-0.495,1.714-0.071c0.135,0.114,0.266,0.228,0.394,0.355l18.157,18.16c1.453,1.45,2.252,3.381,2.252,5.434
	c0,2.053-0.799,3.984-2.252,5.435c-1.452,1.452-3.382,2.251-5.434,2.251c-0.527,0-1.045-0.053-1.548-0.155
	c0.102,0.504,0.154,1.023,0.154,1.548c0,2.053-0.8,3.983-2.251,5.434c-1.452,1.452-3.383,2.252-5.436,2.252
	c-0.529,0-1.047-0.053-1.553-0.156c0.499,2.446-0.197,5.091-2.09,6.986C63.835,81.789,61.904,82.589,59.851,82.589z M13.256,35.599
	l42.952,42.949c0.973,0.973,2.267,1.509,3.644,1.509c1.377,0,2.671-0.536,3.646-1.51c2.009-2.009,2.009-5.28,0-7.29
	c-0.248-0.247-0.371-0.571-0.371-0.895c0-0.325,0.123-0.649,0.371-0.896c0.495-0.494,1.297-0.494,1.79,0.001
	c0.973,0.973,2.267,1.51,3.643,1.51c1.377,0,2.671-0.537,3.645-1.51c0.974-0.973,1.51-2.267,1.51-3.644
	c0-1.377-0.536-2.671-1.51-3.644c-0.247-0.247-0.371-0.571-0.371-0.895c0-0.325,0.124-0.648,0.371-0.895
	c0.494-0.495,1.296-0.495,1.791,0c0.973,0.973,2.267,1.508,3.644,1.508c1.376,0,2.67-0.536,3.644-1.508
	c0.973-0.975,1.51-2.268,1.51-3.646c0-1.377-0.537-2.67-1.51-3.643L64.092,35.536l-8.184,8.185c-1.452,1.451-3.382,2.25-5.435,2.25
	c-2.053,0-3.984-0.799-5.436-2.25c-2.995-2.998-2.995-7.875-0.001-10.871l8.185-8.184l-3.706-3.706
	c-0.974-0.973-2.268-1.509-3.644-1.509c-1.377,0-2.671,0.536-3.644,1.509c-0.495,0.494-1.296,0.495-1.79,0l-6.273-6.271
	L13.256,35.599z"/>
</svg>
