<?xml version="1.0" encoding="utf-8"?>
<!-- Generator: Adobe Illustrator 17.0.0, SVG Export Plug-In . SVG Version: 6.00 Build 0)  -->
<!DOCTYPE svg PUBLIC "-//W3C//DTD SVG 1.1//EN" "http://www.w3.org/Graphics/SVG/1.1/DTD/svg11.dtd">
<svg version="1.1" id="Слой_1" xmlns="http://www.w3.org/2000/svg" xmlns:xlink="http://www.w3.org/1999/xlink" x="0px" y="0px"
	 width="336.96px" height="410.88px" viewBox="0 0 336.96 410.88" enable-background="new 0 0 336.96 410.88" xml:space="preserve">
<path fill="#FCD181" d="M40.801,165.121c-4.418,0-8,3.582-8,8c0,4.414,3.582,8,8,8c4.414,0,8-3.586,8-8
	C48.801,168.703,45.215,165.121,40.801,165.121L40.801,165.121z M40.801,165.121"/>
<path fill="#FFFFFF" d="M328.801,69.121c-87.18,0-134.028-46.586-149.422-61.895c-3.133-3.113-4.707-4.679-6.367-5.707
	c-2.582-1.597-5.844-1.597-8.426,0c-1.141,0.707-2.059,1.606-4.277,3.774c-5.7,5.566-19.047,18.605-39.688,31.515
	C86.328,58.25,48.703,69.121,8.801,69.121c-4.418,0-8,3.582-8,8v104.953c0,50.383,15.894,98.379,45.965,138.797
	c32.613,43.824,75.132,75.328,119.734,88.711c0.75,0.226,1.527,0.34,2.301,0.34c0.773,0,1.547-0.114,2.297-0.34
	c44.601-13.383,87.125-44.887,119.738-88.711c30.07-40.418,45.965-88.414,45.965-138.797V77.121
	C336.801,72.703,333.219,69.121,328.801,69.121L328.801,69.121z M320.801,182.074c0,46.914-14.801,91.609-42.801,129.246
	c-30.008,40.32-68.703,69.437-109.199,82.23c-40.496-12.793-79.196-41.91-109.199-82.23c-28-37.637-42.801-82.332-42.801-129.246
	v-97.09c39.98-1.367,77.722-12.992,112.304-34.609c19.348-12.102,32.649-24.246,39.735-31.063
	c16.777,16.664,64.629,62.988,151.961,65.684V182.074z M320.801,182.074"/>
<rect x="0" fill="none" width="336.96" height="410.88"/>
<path fill="#FFFFFF" d="M297.68,99.433c-44.032-4.875-85.805-22.691-124.164-52.961c-2.871-2.265-6.914-2.297-9.817-0.074
	C125.707,75.476,81.723,94.254,39.848,99.273c-4.02,0.481-7.047,3.895-7.047,7.942v33.906c0,4.418,3.582,8,8,8c4.418,0,8-3.582,8-8
	v-26.922c30.433-4.633,73.652-17.527,119.687-51.391c37.332,28.289,77.746,45.633,120.313,51.633v67.633
	c0,39.98-12.617,78.062-36.485,110.129c-22.859,30.746-51.687,53.219-83.515,65.148c-31.828-11.929-60.653-34.398-83.512-65.136
	c-19.258-25.875-31.426-56.329-35.191-88.067c-0.524-4.391-4.5-7.531-8.887-7.004c-4.387,0.52-7.523,4.5-7.004,8.887
	c4.094,34.516,17.32,67.621,38.246,95.734c25.395,34.153,57.785,58.922,93.676,71.641c0.863,0.305,1.766,0.457,2.672,0.457
	c0.902,0,1.808-0.152,2.672-0.457c35.89-12.719,68.285-37.496,93.679-71.652c25.938-34.848,39.649-76.235,39.649-119.68v-74.692
	C304.801,103.308,301.734,99.882,297.68,99.433L297.68,99.433z M297.68,99.433"/>
<path fill="#FCD181" d="M248.219,175.687c-0.946-2.894-3.446-5.008-6.461-5.445l-45.676-6.633l-20.418-41.391
	c-1.348-2.73-4.129-4.457-7.176-4.461c-3.043,0-5.824,1.731-7.172,4.461l-20.425,41.391l-45.68,6.633
	c-3.012,0.437-5.516,2.551-6.457,5.445c-0.942,2.895-0.156,6.074,2.023,8.199l33.051,32.219l-7.801,45.492
	c-0.515,3.004,0.719,6.035,3.184,7.825c1.394,1.015,3.047,1.531,4.703,1.531c1.274,0,2.551-0.305,3.723-0.922l40.851-21.481
	l40.844,21.481c2.695,1.418,5.965,1.184,8.426-0.609c2.465-1.79,3.699-4.821,3.183-7.825l-7.8-45.492l33.05-32.219
	C248.371,181.761,249.156,178.586,248.219,175.687L248.219,175.687z M198.961,207.582c-1.887,1.84-2.746,4.488-2.301,7.082
	l5.77,33.66l-30.219-15.891c-2.332-1.226-5.117-1.226-7.445,0l-30.231,15.895l5.774-33.664c0.445-2.594-0.414-5.242-2.301-7.078
	l-24.457-23.84l33.797-4.906c2.609-0.379,4.859-2.016,6.027-4.379l15.113-30.621l15.106,30.621c1.164,2.363,3.418,4,6.023,4.379
	l33.797,4.91L198.961,207.582z M198.961,207.582"/>
</svg>
